4 Subsetting a data frame using the dplyr package – Structural equation modeling with lavaan in R: Examples and excercises
…
6.14 Fun with Starwars characters

starwars

# A tibble: 87 × 14
   name     height  mass hair_color skin_color eye_color birth_year sex   gender
   <chr>     <int> <dbl> <chr>      <chr>      <chr>          <dbl> <chr> <chr> 
 1 Luke Sk…    172    77 blond      fair       blue            19   male  mascu…
 2 C-3PO       167    75 <NA>       gold       yellow         112   none  mascu…
 3 R2-D2        96    32 <NA>       white, bl… red             33   none  mascu…
 4 Darth V…    202   136 none       white      yellow          41.9 male  mascu…
 5 Leia Or…    150    49 brown      light      brown           19   fema… femin…
 6 Owen La…    178   120 brown, gr… light      blue            52   male  mascu…
 7 Beru Wh…    165    75 brown      light      blue            47   fema… femin…
 8 R5-D4        97    32 <NA>       white, red red             NA   none  mascu…
 9 Biggs D…    183    84 black      light      brown           24   male  mascu…
10 Obi-Wan…    182    77 auburn, w… fair       blue-gray       57   male  mascu…
# ℹ 77 more rows
# ℹ 5 more variables: homeworld <chr>, species <chr>, films <list>,
#   vehicles <list>, starships <list>

starwars %>% 
  filter(!species == "Human") %>% 
  select(name, height, mass, eye_color, species, films)

# A tibble: 48 × 6
   name                  height  mass eye_color species        films    
   <chr>                  <int> <dbl> <chr>     <chr>          <list>   
 1 C-3PO                    167    75 yellow    Droid          <chr [6]>
 2 R2-D2                     96    32 red       Droid          <chr [7]>
 3 R5-D4                     97    32 red       Droid          <chr [1]>
 4 Chewbacca                228   112 blue      Wookiee        <chr [5]>
 5 Greedo                   173    74 black     Rodian         <chr [1]>
 6 Jabba Desilijic Tiure    175  1358 orange    Hutt           <chr [3]>
 7 Yoda                      66    17 brown     Yoda's species <chr [5]>
 8 IG-88                    200   140 red       Droid          <chr [1]>
 9 Bossk                    190   113 red       Trandoshan     <chr [1]>
10 Ackbar                   180    83 orange    Mon Calamari   <chr [2]>
# ℹ 38 more rows
